<?xml version="1.0" standalone="no"?>
<!DOCTYPE svg PUBLIC "-//W3C//DTD SVG 1.1//EN" "http://www.w3.org/Graphics/SVG/1.1/DTD/svg11.dtd">
<svg xmlns="http://www.w3.org/2000/svg">
<metadata>Copyright (C) 2017 by original authors @ fontello.com</metadata>
<defs>
<font id="fontello" horiz-adv-x="1000" >
<font-face font-family="fontello" font-weight="400" font-stretch="normal" units-per-em="1000" ascent="850" descent="-150" />
<missing-glyph horiz-adv-x="1000" />
<glyph glyph-name="battery" unicode="&#xe801;" d="M1400 550h-200v200c0 28-17 1-45 1l-1155-1v-900h1200v200h200v500z m-1000-400h-200v300h200v-300z m300 0h-200v300h200v-300z m300 0h-200v300h200v-300z" horiz-adv-x="1400" />

<glyph glyph-name="btn_bg" unicode="&#xe802;" d="M125 850a125 125 0 1 0-125-125 125 125 0 0 0 125 125z m375 0a125 125 0 1 0-125-125 125 125 0 0 0 125 125z m375 0a125 125 0 1 0-125-125 125 125 0 0 0 125 125z m-750-375a125 125 0 1 0-125-125 125 125 0 0 0 125 125z m375 0a125 125 0 1 0-125-125 125 125 0 0 0 125 125z m375 0a125 125 0 1 0-125-125 125 125 0 0 0 125 125z m-750-375a125 125 0 1 0-125-125 125 125 0 0 0 125 125z m375 0a125 125 0 1 0-125-125 125 125 0 0 0 125 125z m375 0a125 125 0 1 0-125-125 125 125 0 0 0 125 125z" horiz-adv-x="1000" />

<glyph glyph-name="camera" unicode="&#xe803;" d="M704 538a206 206 0 1 1 211-207 209 209 0 0 1-211 207z m296 212v100h-600v-100h-400v-900h1400v900h-400z m-296-763a348 348 0 0 0-351 344 348 348 0 0 0 351 344 348 348 0 0 0 352-344 348 348 0 0 0-352-344z m596 563h-100v100h100v-100z" horiz-adv-x="1400" />

<glyph glyph-name="diamond" unicode="&#xe804;" d="M583 744l-166-227h333z m20 106c34-46 30-40 204-276l101 276h-305z m-186-417l166-416 167 416h-333z m-230 383l-187-299s250 0 276 0c-28 84-49 193-89 299z m354-959c-24 65-62 181-208 576h-333l533-581a5 5 0 0 1 8 5z m-283 993l102-276c174 236 170 230 204 276h-306z m721-34c-39-106-115-215-146-299h334z m-134-364l-220-595c-1-5-5-4 9-5l533 581h-334z" horiz-adv-x="1167" />

<glyph glyph-name="display" unicode="&#xe805;" d="M1200-50h-400v-100h-200v100h-600v900h1400v-900h-200z m0 700h-1000v-500h1000v500z" horiz-adv-x="1400" />

<glyph glyph-name="logo" unicode="&#xe806;" d="M202 6c1 1 2 2 4 4s0 3 1 5a89 89 0 0 0 154-91c-2-2-3-3-4-4s-1-4-2-6a89 89 0 0 0-153 92z m-26 161a67 67 0 0 0-30 41 66 66 0 0 0 48 80 342 342 0 0 0 413-246 66 66 0 0 0-48-81 68 68 0 0 0-81 49 208 208 0 0 1-251 149 67 67 0 0 0-51 8z m-13 239a67 67 0 0 0-81 48 66 66 0 0 0 48 81 600 600 0 0 0 724-431 66 66 0 0 0-48-81 68 68 0 0 0-81 49 466 466 0 0 1-562 334z m-64 250a67 67 0 0 0-81 49 66 66 0 0 0 48 81 863 863 0 0 0 1040-620 66 66 0 0 0-48-80 68 68 0 0 0-82 48 727 727 0 0 1-877 522z" horiz-adv-x="1125" />

<glyph glyph-name="mini_pc" unicode="&#xe807;" d="M769 850h-720a50 50 0 0 1-49-50v-900a50 50 0 0 1 49-50h720a50 50 0 0 1 49 50v900a50 50 0 0 1-49 50z m4-955c0-8 8 0 0 0h-727c-9 0 0-8 0 0v910c0 8-9 0 0 0h727c8 0 0 8 0 0v-910z m-602 196a69 69 0 1 1 68-69 69 69 0 0 1-68 69z m-80 77h636v591h-636v-591z m591 46h-546v91h546v-91z m0 136h-546v91h546v-91z m0 136h-546v91h546v-91z m-546 226h546v-89h-546v89z m546-635h45v-91h-45v91z m-91 0h45v-91h-45v91z m-91 0h46v-91h-46v91z" horiz-adv-x="818" />

<glyph glyph-name="network" unicode="&#xe808;" d="M0 250h200v-400h-200v400z m400 200h200v-600h-200v600z m400 200h200v-800h-200v800z m400 200h200v-1000h-200v1000z" horiz-adv-x="1400" />

<glyph glyph-name="processor" unicode="&#xe809;" d="M214 636h572v-572h-572v572z m72 214h143v-143h-143v143z m285 0h143v-143h-143v143z m-285-857h143v-143h-143v143z m285 0h143v-143h-143v143z m429 571v-143h-143v143h143z m0-285v-143h-143v143h143z m-857 285v-143h-143v143h143z m0-285v-143h-143v143h143z" horiz-adv-x="1000" />

<glyph glyph-name="rating" unicode="&#xe80a;" d="M500 850a500 500 0 1 1 500-500 501 501 0 0 1-500 500z m0-862a362 362 0 1 0 362 362 363 363 0 0 0-362-362z m182 427c0 101-71 164-185 164h-169v-457h97v127h85l93-128h120l-113 156a156 156 0 0 1 72 138z m-185-69h-72v136h72c88 0 88-50 88-67s0-69-88-69z" horiz-adv-x="1000" />

<glyph glyph-name="remove" unicode="&#xe80b;" d="M1000 792l-58 58-442-442-442 442-58-58 442-442-442-442 58-58 442 442 442-442 58 58-442 442z" horiz-adv-x="1000" />

<glyph glyph-name="smart_phone" unicode="&#xe80c;" d="M106-150h334a107 107 0 0 1 106 107v786a96 96 0 0 1-91 107h-364a95 95 0 0 1-91-107v-786a107 107 0 0 1 106-107z m-71 893a52 52 0 0 0 56 62h364c39 0 45-6 45-46v-818c0-40-6-46-45-46h-364c-39 0-45 6-45 46v818z m56-711h364c4 0 0-5 0 0v727a140 140 0 0 0 45 0h-409a142 142 0 0 1 0-45v-682c0-5-5 0 0 0z m45 682h273v-637h-273v637z m137-698a55 55 0 1 1 53-54 54 54 0 0 1-53 54z m0-91a37 37 0 1 0 36 36 36 36 0 0 0-36-36z m-50 848h100a7 7 0 0 1 8 7 7 7 0 0 1-8 6h-100a7 7 0 0 1-8-6 7 7 0 0 1 8-7z" horiz-adv-x="545" />

<glyph glyph-name="smart_tv" unicode="&#xe80d;" d="M1387 850h-1364a22 22 0 0 1-23-21v-844s33 1 46 1h590v-91h-181v-45h500v45h-182v91h591c12 0 45-1 45-1v844a22 22 0 0 1-22 21z m-660-955h-45v91h45v-91z m637 137h-1318v773h1318v-773z m-1273 45h1227c9 0 0-8 0 0v682c0 8 9 0 0 0h-1227c-8 0 0 8 0 0v-682c0-8-8 0 0 0z m45 637h1137v-591h-1137v591z m1135-657h-66a14 14 0 1 1 0-29h66a14 14 0 1 1 0 29z m-506 0h-121a14 14 0 1 1 0-29h121a14 14 0 1 1 0 29z m556 0a16 16 0 0 1-11-5 14 14 0 0 1 0-20 15 15 0 0 1 21 0 14 14 0 0 1 0 20 15 15 0 0 1-10 5z" horiz-adv-x="1409" />

<glyph glyph-name="smart_watch" unicode="&#xe80e;" d="M640 267l-49-8v-136c0-49-18-106-68-106h-2l-11-20a120 120 0 0 1-17-61 94 94 0 0 0-99-86h-174a94 94 0 0 0-99 86 119 119 0 0 1-17 61l-12 20h-2a89 89 0 0 0-90 88v490a89 89 0 0 0 90 88h2l12 20a119 119 0 0 1 17 61 94 94 0 0 0 99 86h174a94 94 0 0 0 99-86 119 119 0 0 1 17-61l11-19h3c49-1 67-58 67-107v-136l49-8a42 42 0 0 0 42-41v-84a42 42 0 0 0-42-41z m-485-331c0-29 36-41 72-41h182c36 0 50 12 50 41a152 152 0 0 0 21 77l20 19h-364l-2-19a152 152 0 0 0 21-77z m325 750a152 152 0 0 0-21 77c0 30-14 42-50 42h-182c-36 0-72-12-72-41a152 152 0 0 0-21-77l2-19h364z m66-63h-500v-500a40 40 0 0 1 45-46h455v500c0 31 30 46 0 46z m102-231a8 8 0 0 1-8 8h-26v-100h26a8 8 0 0 1 8 8v84z m-557 185h409v-45h-409v45z m364 0h45v-454h-45v454z m-364-409h409v-45h-409v45z m0 409h45v-454h-45v454z" horiz-adv-x="682" />

<glyph glyph-name="tablet" unicode="&#xe80f;" d="M758 850h-697a60 60 0 0 1-61-59v-882a60 60 0 0 1 61-59h697a60 60 0 0 1 60 59v882a60 60 0 0 1-60 59z m15-955c0-14 14 0 0 0h-727c-15 0 0-14 0 0v910c0 14-15 0 0 0h727c14 0 0 14 0 0v-910z m-46 864h-636a108 108 0 0 1 0-45v-728a108 108 0 0 1 0-45h636v773a108 108 0 0 1 0 45z m-45-773h-546v728h546v-728z m-273-52a18 18 0 0 1-12-5 17 17 0 0 1 0-23 18 18 0 0 1 24 0 17 17 0 0 1 0 23 18 18 0 0 1-12 5z m0 832a12 12 0 0 1 8 4 11 11 0 0 1 0 16 12 12 0 0 1-16 0 11 11 0 0 1 0-16 12 12 0 0 1 8-4z" horiz-adv-x="818" />

<glyph glyph-name="tree_item" unicode="&#xe810;" d="M698-127h23v-23h-23v23z m0 977h23v-23h-23v23z m-70 0h23v-23h-23v23z m-70 0h23v-23h-23v23z m-70-977h24v-23h-24v23z m0 977h24v-23h-24v23z m-69-977h23v-23h-23v23z m0 977h23v-23h-23v23z m-70-977h23v-23h-23v23z m0 977h23v-23h-23v23z m-47-1000h-23v23h23v-23z m-23 93h23v-23h-23v23z m0 70h23v-24h-23v24z m0 46v24h23v-24h-23z m0 93h23v-23h-23v23z m0 70h23v-23h-23v23z m0 70h23v-23h-23v23z m0 70h23v-24h-23v24z m0 69h23v-23h-23v23z m0 70h23v-23h-23v23z m0 70h23v-23h-23v23z m0 70h23v-24h-23v24z m0 70h23v-24h-23v24z m0 69h23v-23h-23v23z m0 47v23h23v-23h-23z m-70-465h24v-24h-24v24z m-69 0h23v-24h-23v24z m-70 0h23v-24h-23v24z m-70 0h23v-24h-23v24z m581-512h-23v23h23v-23z m70 0h-23v23h23v-23z" horiz-adv-x="721" />

<glyph glyph-name="act_camera" unicode="&#xe811;" d="M500 436c-50 0-86-40-86-86s41-86 86-86 86 41 86 86-36 86-86 86z m0-136c-27 0-50 23-50 50s23 50 50 50 50-23 50-50-23-50-50-50z m0 409c-200 0-359-163-359-359s164-359 359-359 359 164 359 359-159 359-359 359z m0-663c-168 0-304 136-304 304s136 305 304 305 305-137 305-305-137-304-305-304z m0 786c-268 0-482-214-482-482s214-482 482-482 482 214 482 482-214 482-482 482z m0-914c-236 0-432 196-432 432s196 432 432 432 432-196 432-432-196-432-432-432z" horiz-adv-x="1000" />

<glyph glyph-name="search" unicode="&#xe812;" d="M412 3a417 417 0 0 0-412 423 417 417 0 0 0 412 424 417 417 0 0 0 412-424 417 417 0 0 0-412-423z m0 782a354 354 0 0 1-348-359 354 354 0 0 1 348-358 354 354 0 0 1 349 358 354 354 0 0 1-349 359z m513-935a31 31 0 0 0-23 9l-251 259a32 32 0 0 0 0 45 30 30 0 0 0 44 0l251-258a32 32 0 0 0 0-46 24 24 0 0 0-21-9z" horiz-adv-x="957" />
</font>
</defs>
</svg>